…
split_steam_reviews(steam_games, "recent")
#> # A tibble: 40,833 × 23
#>       id url               types name  desc_snippet recent_rating recent_reviews
#>    <dbl> <chr>             <chr> <chr> <chr>        <chr>                  <dbl>
#>  1     1 https://store.st… app   DOOM  Now include… Very Positive            554
#>  2     2 https://store.st… app   PLAY… PLAYERUNKNO… Mixed                   6214
#>  3     3 https://store.st… app   BATT… Take comman… Mixed                    166
#>  4     4 https://store.st… app   DayZ  The post-so… Mixed                    932
#>  5     5 https://store.st… app   EVE … EVE Online … Mixed                    287
#>  6     6 https://store.st… bund… Gran… Grand Theft… <NA>                      NA
#>  7     7 https://store.st… app   Devi… The ultimat… Very Positive            408
#>  8     8 https://store.st… app   Huma… Human: Fall… Very Positive            629
#>  9     9 https://store.st… app   They… They Are Bi… Very Positive            192
#> 10    10 https://store.st… app   Warh… In a world … <NA>                      NA
#> # ℹ 40,823 more rows
#> # ℹ 16 more variables: percent_positive_recent <dbl>, all_reviews <chr>,
#> #   release_date <chr>, developer <chr>, publisher <chr>, popular_tags <chr>,
#> #   game_details <chr>, languages <chr>, achievements <dbl>, genre <chr>,
#> #   game_description <chr>, mature_content <chr>, minimum_requirements <chr>,
#> #   recommended_requirements <chr>, original_price <dbl>, discount_price <dbl>
split_steam_reviews(steam_games, "all")
#> # A tibble: 40,833 × 23
#>       id url      types name  desc_snippet recent_reviews all_rating all_reviews
#>    <dbl> <chr>    <chr> <chr> <chr>        <chr>          <chr>            <dbl>
#>  1     1 https:/… app   DOOM  Now include… Very Positive… Very Posi…       42550
#>  2     2 https:/… app   PLAY… PLAYERUNKNO… Mixed,(6,214)… Mixed           836608
#>  3     3 https:/… app   BATT… Take comman… Mixed,(166),-… Mostly Po…        7030
#>  4     4 https:/… app   DayZ  The post-so… Mixed,(932),-… Mixed           167115
#>  5     5 https:/… app   EVE … EVE Online … Mixed,(287),-… Mostly Po…       11481
#>  6     6 https:/… bund… Gran… Grand Theft… NaN            <NA>                NA
#>  7     7 https:/… app   Devi… The ultimat… Very Positive… Very Posi…        9645
#>  8     8 https:/… app   Huma… Human: Fall… Very Positive… Very Posi…       23763
#>  9     9 https:/… app   They… They Are Bi… Very Positive… Very Posi…       12127
#> 10    10 https:/… app   Warh… In a world … <NA>           Mixed              904
#> # ℹ 40,823 more rows
#> # ℹ 15 more variables: percent_positive_all <dbl>, release_date <chr>,
#> #   developer <chr>, publisher <chr>, popular_tags <chr>, game_details <chr>,
#> #   languages <chr>, achievements <dbl>, genre <chr>, game_description <chr>,
#> #   mature_content <chr>, minimum_requirements <chr>,
#> #   recommended_requirements <chr>, original_price <dbl>, discount_price <dbl>
```
